0,2
1,3
2,9
3,29
4,52
5,82
6,122
7,157
8,227
9,333
10,534
11,618
12,769
13,1036
14,956
15,1054
16,1142
17,1090
18,1306
19,1547
20,1376
21,1336
22,1282
23,1117
24,1052
25,1065
26,939
27,856
28,881
29,742
30,653
31,647
32,657
33,575
34,482
35,501
36,488
37,403
38,329
39,362
40,290
41,254
42,258
43,183
44,205
45,204
46,238
47,209
48,171
49,167
50,131
51,128
52,143
53,109
54,195
55,97
56,95
57,113
58,74
59,104
60,80
61,60
62,71
63,67
64,65
65,66
66,53
67,39
68,49
69,32
70,43
71,33
72,21
73,23
74,19
75,14
76,12
77,15
78,12
79,43
80,12
81,16
82,14
83,12
84,5
85,7
86,5
87,6
88,5
89,6
90,2
91,2
92,5
93,2
94,1
95,3
96,1
98,2
100,1
101,1
102,2
103,4
104,1
106,1
107,4
108,4
109,4
110,1
111,2
112,2
113,1
114,4
115,1
117,2
118,4
119,1
120,1
121,1
122,1
123,2
132,1
133,1
135,1
138,2
144,1
151,1
158,1
196,1
