-1,8388
0,8374
1,4280
2,2664
3,1691
4,1340
5,909
6,744
7,616
8,444
9,349
10,217
11,215
12,148
13,124
14,102
15,116
16,48
17,52
18,42
19,35
20,29
21,23
22,20
23,16
24,28
25,7
26,5
27,5
28,5
29,6
30,7
31,6
32,3
33,4
34,5
35,5
36,14
37,4
38,3
39,2
40,3
41,4
42,22
43,3
44,4
45,3
46,4
47,1
48,2
49,4
50,2
51,2
52,1
53,3
54,1
55,1
58,1
