-1,1031
0,14214
1,5093
2,3151
3,1713
4,1175
5,799
6,614
7,585
8,436
9,355
10,284
11,212
12,200
13,171
14,124
15,126
16,135
17,185
18,121
19,56
20,42
21,40
22,49
23,40
24,29
25,30
26,13
27,17
28,17
29,26
30,15
31,7
32,9
33,9
34,8
35,2
36,5
37,2
38,2
39,2
40,5
41,2
42,1
44,1
45,1
53,1
64,1
