0,2
1,31
2,175
3,589
4,1110
5,1778
6,2554
7,2939
8,2752
9,2817
10,2681
11,2084
12,1747
13,1402
14,1256
15,1020
16,883
17,857
18,769
19,593
20,536
21,372
22,423
23,432
24,232
25,199
26,152
27,127
28,96
29,73
30,69
31,46
32,56
33,38
34,37
35,35
36,20
37,20
38,17
39,12
40,21
41,9
42,12
43,9
44,10
45,9
46,6
47,7
48,5
49,7
50,7
51,2
52,1
53,2
54,4
55,5
56,1
57,2
58,1
60,1
61,1
63,1
67,1
100,1
