-1,8389
0,9854
1,3758
2,2611
3,1537
4,1089
5,829
6,554
7,459
8,378
9,293
10,271
11,174
12,151
13,128
14,110
15,99
16,91
17,44
18,36
19,51
20,28
21,21
22,34
23,17
24,22
25,18
26,8
27,8
28,9
29,8
30,6
31,3
32,5
33,3
34,12
35,3
36,3
37,5
38,5
39,2
40,1
41,1
43,5
44,1
45,1
46,2
49,6
51,1
53,3
54,1
58,1
59,4
61,1
64,2
