0,2
1,48
2,231
3,647
4,1202
5,1914
6,2525
7,2810
8,2811
9,2964
10,2276
11,1984
12,1714
13,1504
14,1222
15,1023
16,906
17,706
18,671
19,564
20,462
21,416
22,423
23,381
24,263
25,210
26,173
27,208
28,163
29,137
30,110
31,97
32,63
33,52
34,38
35,34
36,34
37,53
38,19
39,12
40,16
41,11
42,8
43,6
44,8
45,13
46,7
47,2
48,2
49,2
50,2
51,1
53,2
54,2
57,1
61,1
