0,2
1,3
2,9
3,30
4,61
5,92
6,154
7,203
8,319
9,491
10,687
11,835
12,1045
13,1364
14,1342
15,1351
16,1686
17,1545
18,1461
19,1496
20,1428
21,1348
22,1245
23,1203
24,1043
25,897
26,949
27,816
28,742
29,684
30,612
31,593
32,596
33,421
34,396
35,327
36,274
37,252
38,269
39,251
40,266
41,250
42,197
43,176
44,189
45,129
46,120
47,104
48,119
49,109
50,82
51,102
52,70
53,102
54,86
55,73
56,71
57,56
58,43
59,32
60,24
61,23
62,10
63,15
64,13
65,25
66,30
67,10
68,19
69,11
70,11
71,9
72,9
73,5
74,7
75,6
76,1
77,4
78,3
79,4
80,2
81,1
82,5
83,2
84,1
85,1
88,2
89,2
98,1
105,1
114,1
